{
  "project_info": {
    "project_number": "746864609145",
    "firebase_url": "https://self-help-hotline-acp.firebaseio.com",
    "project_id": "self-help-hotline-acp",
    "storage_bucket": "self-help-hotline-acp.appspot.com"
  },
  "client": [
    {
      "client_info": {
        "mobilesdk_app_id": "1:746864609145:android:26ee38625d31c823",
        "android_client_info": {
          "package_name": "com.unioulu.ssh"
        }
      },
      "oauth_client": [
        {
          "client_id": "746864609145-s9hh1vcd6uqir3v5pmfjtra9cgij9cdp.apps.googleusercontent.com",
          "client_type": 3
        }
      ],
      "api_key": [
        {
          "current_key": "AIzaSyBy_gNbOb7ko4esqIF1Sg6ocVcrgdtcFpU"
        }
      ],
      "services": {
        "analytics_service": {
          "status": 1
        },
        "appinvite_service": {
          "status": 1,
          "other_platform_oauth_client": []
        },
        "ads_service": {
          "status": 2
        }
      }
    }
  ],
  "configuration_version": "1"
}